[gd_scene load_steps=3 format=1]

[ext_resource path="res://example/ExampleMain.gd" type="Script" id=1]
[ext_resource path="res://example/green_texture.png" type="Texture" id=2]

[node name="ExampleMain" type="Node2D"]

script/script = ExtResource( 1 )

[node name="Background" type="Sprite" parent="."]

texture = ExtResource( 2 )
centered = false
modulate = Color( 0.106293, 0.217916, 0.316406, 1 )
region = true
region_rect = Rect2( 0, 0, 900, 900 )

[node name="Block" type="Sprite" parent="."]

transform/pos = Vector2( 59.1115, 78.3476 )
transform/scale = Vector2( 8.42278, 12.29 )
texture = ExtResource( 2 )
modulate = Color( 0, 1, 0.835938, 1 )

[node name="Block1" type="Sprite" parent="."]

transform/pos = Vector2( 62.813, 755.674 )
transform/scale = Vector2( 8.42278, 12.29 )
texture = ExtResource( 2 )
modulate = Color( 1, 0, 0, 1 )

[node name="Button4" type="Button" parent="."]

rect/scale = Vector2( 2, 2 )
focus/ignore_mouse = false
focus/stop_mouse = true
size_flags/horizontal = 2
size_flags/vertical = 2
margin/left = 160.0
margin/top = 25.0
margin/right = 194.0
margin/bottom = 45.0
toggle_mode = false
enabled_focus_mode = 2
shortcut = null
text = "SIN"
flat = false

[node name="Button1" type="Button" parent="."]

rect/scale = Vector2( 2, 2 )
focus/ignore_mouse = false
focus/stop_mouse = true
size_flags/horizontal = 2
size_flags/vertical = 2
margin/left = 160.0
margin/top = 71.0
margin/right = 222.0
margin/bottom = 91.0
toggle_mode = false
enabled_focus_mode = 2
shortcut = null
text = "TRIANGLE"
flat = false

[node name="Button2" type="Button" parent="."]

rect/scale = Vector2( 2, 2 )
focus/ignore_mouse = false
focus/stop_mouse = true
size_flags/horizontal = 2
size_flags/vertical = 2
margin/left = 160.0
margin/top = 120.0
margin/right = 208.0
margin/bottom = 140.0
toggle_mode = false
enabled_focus_mode = 2
shortcut = null
text = "SAW"
flat = false

[node name="Button3" type="Button" parent="."]

rect/scale = Vector2( 2, 2 )
focus/ignore_mouse = false
focus/stop_mouse = true
size_flags/horizontal = 2
size_flags/vertical = 2
margin/left = 160.0
margin/top = 173.0
margin/right = 221.0
margin/bottom = 193.0
toggle_mode = false
enabled_focus_mode = 2
shortcut = null
text = "R. SAW"
flat = false

[connection signal="pressed" from="Button4" to="." method="_on_Button4_pressed"]

[connection signal="pressed" from="Button1" to="." method="_on_Button1_pressed"]

[connection signal="pressed" from="Button2" to="." method="_on_Button2_pressed"]

[connection signal="pressed" from="Button3" to="." method="_on_Button3_pressed"]


